{"hash":"08ee08ea24387c82778ddfa112753a2ce73bc86f","data":{"communities":{"totalCount":21,"pageInfo":{"totalPages":2,"currentPage":2,"isFirst":false,"isLast":true},"edges":[{"node":{"id":"164658bce2b975e019d90004591f643a","path":"/comunidades/tomato-valley-copy-2/","title":"Tomato Valley","description":"Comunidad de emprendimiento de base tecnológica","location":"México","tags":[{"title":"Emprendimiento","path":"/tag/Emprendimiento/"},{"title":"Ciencia","path":"/tag/Ciencia/"},{"title":"Tecnología","path":"/tag/Tecnolog%C3%ADa/"}],"image":{"type":"image","mimeType":"image/png","src":"/atlas/assets/static/tomato.c657497.a00cce35e49a33bf1a61e31556216de6.png","size":{"width":100,"height":67},"sizes":"(max-width: 100px) 100vw, 100px","srcset":["/atlas/assets/static/tomato.c657497.a00cce35e49a33bf1a61e31556216de6.png 100w"],"dataUri":"data:image/svg+xml,%3csvg fill='none' viewBox='0 0 100 67' xmlns='http://www.w3.org/2000/svg' xmlns:xlink='http://www.w3.org/1999/xlink'%3e%3cdefs%3e%3cfilter id='__svg-blur-705c4415c10c59e47ef357c1d26ff6f2'%3e%3cfeGaussianBlur in='SourceGraphic' stdDeviation='40'/%3e%3c/filter%3e%3c/defs%3e%3cimage x='0' y='0' filter='url(%23__svg-blur-705c4415c10c59e47ef357c1d26ff6f2)' width='100' height='67' xlink:href='data:image/png%3bbase64%2ciVBORw0KGgoAAAANSUhEUgAAAEAAAAArCAYAAADIWo5HAAAACXBIWXMAAAsSAAALEgHS3X78AAAJHUlEQVRo3u1YDVBU1xXeXfCntsZaExUVVHaXfT%2b7y75FQJMUazGwi7CPn10UQZ1MrKJpR4wK/pDGaGLUGINB40xTSU2MPzAkhmgSnRHtNE0IAtFWtE1ia9up2h8zsYlpIvBuv/v2vt0Hxc40hbHrcGe%2bueeed9%2b753z3nHPvrsEw0AbaQBtot7GJ8lStN1LodXd0W3IsJyQX7cmM1mRHfpCEO7Lxcora2/2pal/6Znbo2T2iNMaRP20ClYU7NQL0BLhKUk1D42yG4r2eYata87wzytO2Wj3JHpWAvBTTHeHwT8y8YbtVUOUdFsGwK14wVdod3ZwreuGBIavaAuSHJ3Jq6Pix5WmDP3a61TT4A%2bcybHMlR6bz65njtD2jk2kbP%2b9e3pKV1Fiwc%2baJsnfk%2biVvZXuXXPBP1M%2b5LEghuUlwRR4B6yyc2m%2bhzscZDM9ahNFbbeKUo6MTLHK6u5TzpZCC6gyy%2bLWsL%2b%2bfP9XxSIrTspsTXacEl7tVkBJedSQZzwrBSGgT3RFU3cdKhtKxwR1bEecwVJmDIf%2b8RViw2%2bYgz5uFz1e6HF/F5SZ3Jj18X%2beMyrTO1MfSOh7yJ998Lpa/8UvRTT4Q3SdDuy%2b6Q6fC%2b5EUCevMwbDflMAPX2PlyrZYhOO7E%2bykJp5XqjmRLE12kpXfdymPzkoim%2bVUUuNNIkem20lLopu08u4/NYvS5tOiNIV%2bowUknOScERIBMcEI2MDZ1J2rNAuT1li4m9tsdlJtETteAQH1kzjl9YkceS3WRt6I45T2yZLymzSX8tv5icqZZKmrVXCTy9JUAsd/RL8BIqJofyoSSCgNpoCJyc88PM712WoLf%2bNJK98FAsjLIOBQPEcOxPNkP1BnEchp3k3OzHCRcyVO5fo2O7lW6ehqjnffbBGkT08L0rtNvGsk/V6zIBkjgAAXjYIoRsC%2blROSCAjoBAEKJWAfnD40mSMH0R9EX2fmSaPVSZpSEsmvslzkaqWDXCl3kLZUqet8UhJp4aWrzXbXKDUSIoMACQS4NAJqysa7KQEdIICmgEIJqNUIoGQAr2B8zOogHyD0z%2bYkKr8ucirt851d56ZLpJVzXzrtDhLQEoER8OJyHQE7EQE4Dcges6BGgQoWCa9Cd8QqkuZkFzl7r0TOTpO6fuFwkgaz%2bMcTvEMl4E2rPWIiQKsBe7QI2AgCqiyCsh1O7gIJKIZqHdAi4QBI2A/8PCFRabJJyvs2qeuoxU51v0P/Hfq9ung%2b4iKgtiI2mayzcp2AstbCk%2b0ggUbCDhDxM%2bR/HYuE2iCUWhRIgPYdRzCvNp6/3mAR76bfqzcL//8EsIuQkRGQhVOganmc4/OKeJESoTyBSHgKBZEWxZ0WXnnRzCtICQ1IDzrmlb1wfm883wACFh00C9%2bk34McORchOK%2bmwdKYxGGLxrgvLot1dIGAmzQdKCpoXbAIHVVWseNZoCqMTuCf1YgQpEsh%2b11hQjTcHke8voAKvdwTWvOw8cLJKYZl4%2b2GxWMl49IY1zDUhNFLx7m20nRYhpqwnGHFBDcpj3WTJ3BD3GQTyZMJInmac5D1Vv7Dlyzi5F1mYVT7JM5QY7UHr9b3p3dbU1vPo43lsNxnzSMXqmCyCYjqjoCJGWMM6XyBqMz82eo7C2z3qc8XjXN7EBWNQD1wuDRGalgU4z6yGP1qM//6WivXsNbKH15j5RuBp7X1/R45KiN3tn5dk5faFHRe1XmDaxq1TepzEjQibhklMOoW73ztPzbKUr476Ja2MGf/fb3gZmgE9UcKLAE2AasZNmGhBWzxu6gM3ePo5wDfYMbGgIhy6Mvlmb6RjxpiVOOzsv3f8%2bYEtqAvUNhasjd3TFaOfyPwAFsvF9gMrAEqgI3AI6GI8wXyMF6P/gfAPcF3gqSj7xcCjgF/nZU3h3hzZxPIn2DhF%2bA8j/5KTsFcAvlyjr%2bYYPwRNQpjR3b%2bXJI3ewHVlTHjhwIX/MUP0flv63Z2baBkIZ13nq23BbgGdNJvoP8bcBLPY4F3fYF56nrUHow/A9LYd0x9XgRpCtCcY7p24B0mR8OI81j0K/RTmAHTZ%2bUXUaOOAiL0X7DxRfZ8TjbIYobXM90Q4GP6HabPCttQuB/jvwOj2NyDvkAJnZPHxhbYcRX9X4Dh/ylN/icidLl9AU69x0LfKdOdQIiy/ItmBuzAOx3oUccC19G3ZwdJoOF6iumuAW%2bz%2bflqBMFx4BxwXFdj9mP%2bp8BgrD0EfReeH9LXH4yLcwvn0/czmD6qPyJA013AQk1s4WlyoUrAQrbwt5j%2bx5CpvggGUyJWA61UZjtcAZzB%2bASbf5zNn4vvN2YhxSBzLAIOQaaEDcWzb7Nnu9l6w9j7yEqVAFkjoE9PA3rGaoUFcruHpQANOeCG6owvMFinu0J3HUhiDs%2bD8XPyix6k8iVgBL5zEaiHbAborn7JdvcfOQVqHXlKR8A1XXi3AF/QWqDbqGOsLsX0eR3QqiolgbF7CWjTkVPs85fQgvRn4CUs/gkL9zTAqoamHFjGDP0IWMneo7t6GKielafO56EbnunzD6KpAXR6fH4j1qpVo0gOjGDOTQUUlTBf4GXgQ5aGK4CxuhOojyMgdCGCk3JgJyPGyBajztbBuTb0%2bwCtICYA7wEFjIDB2pkN3QHgOeANYFePs34G8HsaQd6gY29pjrHnNuCnXppWvkAD4GH6dOCuPidAf93tKaOP7p00f88oUsmaKeeFZO3ioiMFN8pwBYc8pLfLzi0uZMbe7OybFICR6XJ%2bSGa3LW33JwGLgUz2fBDTO2hY6i8odHdowdJuiprR9EjT8lbXZ2CHN2hRw3QjgHIaIdopQOFRr8UBQ6YvXKuycgr7rQiqDOsigIKe1ena3YDpV9HihPmxuiN0OLvgjNFHD/SPY14Kk6PYsweBPdocb1i/ARB0N0JmH7NLDv846vemi4LRHnZR0nYRBsSoV2Q5dIHRnk2BsRO77baMWoE7hT6UMeduyKn0/O9Wb%2bTASCC6334B/jcnQ291oTfmQyeI7o7u1cjT5bxWD7w9fnyF9Lr3tW9m%2bPy3iQC5WxoYuxEhq0QYe6aKtuvecOSE32dEhJ1VdSZtjq5YGvX/AQy0gTbQBtrXbf8CL5Nhufa/mFIAAAAASUVORK5CYII=' /%3e%3c/svg%3e"}}},{"node":{"id":"12edf4bda5581650038eba4276d5999a","path":"/comunidades/tomato-valley-copy/","title":"Tomato Valley","description":"Comunidad de emprendimiento de base tecnológica","location":"México","tags":[{"title":"Emprendimiento","path":"/tag/Emprendimiento/"},{"title":"Ciencia","path":"/tag/Ciencia/"},{"title":"Tecnología","path":"/tag/Tecnolog%C3%ADa/"}],"image":{"type":"image","mimeType":"image/png","src":"/atlas/assets/static/tomato.c657497.a00cce35e49a33bf1a61e31556216de6.png","size":{"width":100,"height":67},"sizes":"(max-width: 100px) 100vw, 100px","srcset":["/atlas/assets/static/tomato.c657497.a00cce35e49a33bf1a61e31556216de6.png 100w"],"dataUri":"data:image/svg+xml,%3csvg fill='none' viewBox='0 0 100 67' xmlns='http://www.w3.org/2000/svg' xmlns:xlink='http://www.w3.org/1999/xlink'%3e%3cdefs%3e%3cfilter id='__svg-blur-705c4415c10c59e47ef357c1d26ff6f2'%3e%3cfeGaussianBlur in='SourceGraphic' stdDeviation='40'/%3e%3c/filter%3e%3c/defs%3e%3cimage x='0' y='0' filter='url(%23__svg-blur-705c4415c10c59e47ef357c1d26ff6f2)' width='100' height='67' xlink:href='data:image/png%3bbase64%2ciVBORw0KGgoAAAANSUhEUgAAAEAAAAArCAYAAADIWo5HAAAACXBIWXMAAAsSAAALEgHS3X78AAAJHUlEQVRo3u1YDVBU1xXeXfCntsZaExUVVHaXfT%2b7y75FQJMUazGwi7CPn10UQZ1MrKJpR4wK/pDGaGLUGINB40xTSU2MPzAkhmgSnRHtNE0IAtFWtE1ia9up2h8zsYlpIvBuv/v2vt0Hxc40hbHrcGe%2bueeed9%2b753z3nHPvrsEw0AbaQBtot7GJ8lStN1LodXd0W3IsJyQX7cmM1mRHfpCEO7Lxcora2/2pal/6Znbo2T2iNMaRP20ClYU7NQL0BLhKUk1D42yG4r2eYata87wzytO2Wj3JHpWAvBTTHeHwT8y8YbtVUOUdFsGwK14wVdod3ZwreuGBIavaAuSHJ3Jq6Pix5WmDP3a61TT4A%2bcybHMlR6bz65njtD2jk2kbP%2b9e3pKV1Fiwc%2baJsnfk%2biVvZXuXXPBP1M%2b5LEghuUlwRR4B6yyc2m%2bhzscZDM9ahNFbbeKUo6MTLHK6u5TzpZCC6gyy%2bLWsL%2b%2bfP9XxSIrTspsTXacEl7tVkBJedSQZzwrBSGgT3RFU3cdKhtKxwR1bEecwVJmDIf%2b8RViw2%2bYgz5uFz1e6HF/F5SZ3Jj18X%2beMyrTO1MfSOh7yJ998Lpa/8UvRTT4Q3SdDuy%2b6Q6fC%2b5EUCevMwbDflMAPX2PlyrZYhOO7E%2bykJp5XqjmRLE12kpXfdymPzkoim%2bVUUuNNIkem20lLopu08u4/NYvS5tOiNIV%2bowUknOScERIBMcEI2MDZ1J2rNAuT1li4m9tsdlJtETteAQH1kzjl9YkceS3WRt6I45T2yZLymzSX8tv5icqZZKmrVXCTy9JUAsd/RL8BIqJofyoSSCgNpoCJyc88PM712WoLf%2bNJK98FAsjLIOBQPEcOxPNkP1BnEchp3k3OzHCRcyVO5fo2O7lW6ehqjnffbBGkT08L0rtNvGsk/V6zIBkjgAAXjYIoRsC%2blROSCAjoBAEKJWAfnD40mSMH0R9EX2fmSaPVSZpSEsmvslzkaqWDXCl3kLZUqet8UhJp4aWrzXbXKDUSIoMACQS4NAJqysa7KQEdIICmgEIJqNUIoGQAr2B8zOogHyD0z%2bYkKr8ucirt851d56ZLpJVzXzrtDhLQEoER8OJyHQE7EQE4Dcges6BGgQoWCa9Cd8QqkuZkFzl7r0TOTpO6fuFwkgaz%2bMcTvEMl4E2rPWIiQKsBe7QI2AgCqiyCsh1O7gIJKIZqHdAi4QBI2A/8PCFRabJJyvs2qeuoxU51v0P/Hfq9ung%2b4iKgtiI2mayzcp2AstbCk%2b0ggUbCDhDxM%2bR/HYuE2iCUWhRIgPYdRzCvNp6/3mAR76bfqzcL//8EsIuQkRGQhVOganmc4/OKeJESoTyBSHgKBZEWxZ0WXnnRzCtICQ1IDzrmlb1wfm883wACFh00C9%2bk34McORchOK%2bmwdKYxGGLxrgvLot1dIGAmzQdKCpoXbAIHVVWseNZoCqMTuCf1YgQpEsh%2b11hQjTcHke8voAKvdwTWvOw8cLJKYZl4%2b2GxWMl49IY1zDUhNFLx7m20nRYhpqwnGHFBDcpj3WTJ3BD3GQTyZMJInmac5D1Vv7Dlyzi5F1mYVT7JM5QY7UHr9b3p3dbU1vPo43lsNxnzSMXqmCyCYjqjoCJGWMM6XyBqMz82eo7C2z3qc8XjXN7EBWNQD1wuDRGalgU4z6yGP1qM//6WivXsNbKH15j5RuBp7X1/R45KiN3tn5dk5faFHRe1XmDaxq1TepzEjQibhklMOoW73ztPzbKUr476Ja2MGf/fb3gZmgE9UcKLAE2AasZNmGhBWzxu6gM3ePo5wDfYMbGgIhy6Mvlmb6RjxpiVOOzsv3f8%2bYEtqAvUNhasjd3TFaOfyPwAFsvF9gMrAEqgI3AI6GI8wXyMF6P/gfAPcF3gqSj7xcCjgF/nZU3h3hzZxPIn2DhF%2bA8j/5KTsFcAvlyjr%2bYYPwRNQpjR3b%2bXJI3ewHVlTHjhwIX/MUP0flv63Z2baBkIZ13nq23BbgGdNJvoP8bcBLPY4F3fYF56nrUHow/A9LYd0x9XgRpCtCcY7p24B0mR8OI81j0K/RTmAHTZ%2bUXUaOOAiL0X7DxRfZ8TjbIYobXM90Q4GP6HabPCttQuB/jvwOj2NyDvkAJnZPHxhbYcRX9X4Dh/ylN/icidLl9AU69x0LfKdOdQIiy/ItmBuzAOx3oUccC19G3ZwdJoOF6iumuAW%2bz%2bflqBMFx4BxwXFdj9mP%2bp8BgrD0EfReeH9LXH4yLcwvn0/czmD6qPyJA013AQk1s4WlyoUrAQrbwt5j%2bx5CpvggGUyJWA61UZjtcAZzB%2bASbf5zNn4vvN2YhxSBzLAIOQaaEDcWzb7Nnu9l6w9j7yEqVAFkjoE9PA3rGaoUFcruHpQANOeCG6owvMFinu0J3HUhiDs%2bD8XPyix6k8iVgBL5zEaiHbAborn7JdvcfOQVqHXlKR8A1XXi3AF/QWqDbqGOsLsX0eR3QqiolgbF7CWjTkVPs85fQgvRn4CUs/gkL9zTAqoamHFjGDP0IWMneo7t6GKielafO56EbnunzD6KpAXR6fH4j1qpVo0gOjGDOTQUUlTBf4GXgQ5aGK4CxuhOojyMgdCGCk3JgJyPGyBajztbBuTb0%2bwCtICYA7wEFjIDB2pkN3QHgOeANYFePs34G8HsaQd6gY29pjrHnNuCnXppWvkAD4GH6dOCuPidAf93tKaOP7p00f88oUsmaKeeFZO3ioiMFN8pwBYc8pLfLzi0uZMbe7OybFICR6XJ%2bSGa3LW33JwGLgUz2fBDTO2hY6i8odHdowdJuiprR9EjT8lbXZ2CHN2hRw3QjgHIaIdopQOFRr8UBQ6YvXKuycgr7rQiqDOsigIKe1ena3YDpV9HihPmxuiN0OLvgjNFHD/SPY14Kk6PYsweBPdocb1i/ARB0N0JmH7NLDv846vemi4LRHnZR0nYRBsSoV2Q5dIHRnk2BsRO77baMWoE7hT6UMeduyKn0/O9Wb%2bTASCC6334B/jcnQ291oTfmQyeI7o7u1cjT5bxWD7w9fnyF9Lr3tW9m%2bPy3iQC5WxoYuxEhq0QYe6aKtuvecOSE32dEhJ1VdSZtjq5YGvX/AQy0gTbQBtrXbf8CL5Nhufa/mFIAAAAASUVORK5CYII=' /%3e%3c/svg%3e"}}},{"node":{"id":"cc679037f312f2e9692b826731181a57","path":"/comunidades/tomato-valley/","title":"Tomato Valley","description":"Comunidad de emprendimiento de base tecnológica","location":"México","tags":[{"title":"Emprendimiento","path":"/tag/Emprendimiento/"},{"title":"Ciencia","path":"/tag/Ciencia/"},{"title":"Tecnología","path":"/tag/Tecnolog%C3%ADa/"}],"image":{"type":"image","mimeType":"image/png","src":"/atlas/assets/static/tomato.c657497.a00cce35e49a33bf1a61e31556216de6.png","size":{"width":100,"height":67},"sizes":"(max-width: 100px) 100vw, 100px","srcset":["/atlas/assets/static/tomato.c657497.a00cce35e49a33bf1a61e31556216de6.png 100w"],"dataUri":"data:image/svg+xml,%3csvg fill='none' viewBox='0 0 100 67' xmlns='http://www.w3.org/2000/svg' xmlns:xlink='http://www.w3.org/1999/xlink'%3e%3cdefs%3e%3cfilter id='__svg-blur-705c4415c10c59e47ef357c1d26ff6f2'%3e%3cfeGaussianBlur in='SourceGraphic' stdDeviation='40'/%3e%3c/filter%3e%3c/defs%3e%3cimage x='0' y='0' filter='url(%23__svg-blur-705c4415c10c59e47ef357c1d26ff6f2)' width='100' height='67' xlink:href='data:image/png%3bbase64%2ciVBORw0KGgoAAAANSUhEUgAAAEAAAAArCAYAAADIWo5HAAAACXBIWXMAAAsSAAALEgHS3X78AAAJHUlEQVRo3u1YDVBU1xXeXfCntsZaExUVVHaXfT%2b7y75FQJMUazGwi7CPn10UQZ1MrKJpR4wK/pDGaGLUGINB40xTSU2MPzAkhmgSnRHtNE0IAtFWtE1ia9up2h8zsYlpIvBuv/v2vt0Hxc40hbHrcGe%2bueeed9%2b753z3nHPvrsEw0AbaQBtot7GJ8lStN1LodXd0W3IsJyQX7cmM1mRHfpCEO7Lxcora2/2pal/6Znbo2T2iNMaRP20ClYU7NQL0BLhKUk1D42yG4r2eYata87wzytO2Wj3JHpWAvBTTHeHwT8y8YbtVUOUdFsGwK14wVdod3ZwreuGBIavaAuSHJ3Jq6Pix5WmDP3a61TT4A%2bcybHMlR6bz65njtD2jk2kbP%2b9e3pKV1Fiwc%2baJsnfk%2biVvZXuXXPBP1M%2b5LEghuUlwRR4B6yyc2m%2bhzscZDM9ahNFbbeKUo6MTLHK6u5TzpZCC6gyy%2bLWsL%2b%2bfP9XxSIrTspsTXacEl7tVkBJedSQZzwrBSGgT3RFU3cdKhtKxwR1bEecwVJmDIf%2b8RViw2%2bYgz5uFz1e6HF/F5SZ3Jj18X%2beMyrTO1MfSOh7yJ998Lpa/8UvRTT4Q3SdDuy%2b6Q6fC%2b5EUCevMwbDflMAPX2PlyrZYhOO7E%2bykJp5XqjmRLE12kpXfdymPzkoim%2bVUUuNNIkem20lLopu08u4/NYvS5tOiNIV%2bowUknOScERIBMcEI2MDZ1J2rNAuT1li4m9tsdlJtETteAQH1kzjl9YkceS3WRt6I45T2yZLymzSX8tv5icqZZKmrVXCTy9JUAsd/RL8BIqJofyoSSCgNpoCJyc88PM712WoLf%2bNJK98FAsjLIOBQPEcOxPNkP1BnEchp3k3OzHCRcyVO5fo2O7lW6ehqjnffbBGkT08L0rtNvGsk/V6zIBkjgAAXjYIoRsC%2blROSCAjoBAEKJWAfnD40mSMH0R9EX2fmSaPVSZpSEsmvslzkaqWDXCl3kLZUqet8UhJp4aWrzXbXKDUSIoMACQS4NAJqysa7KQEdIICmgEIJqNUIoGQAr2B8zOogHyD0z%2bYkKr8ucirt851d56ZLpJVzXzrtDhLQEoER8OJyHQE7EQE4Dcges6BGgQoWCa9Cd8QqkuZkFzl7r0TOTpO6fuFwkgaz%2bMcTvEMl4E2rPWIiQKsBe7QI2AgCqiyCsh1O7gIJKIZqHdAi4QBI2A/8PCFRabJJyvs2qeuoxU51v0P/Hfq9ung%2b4iKgtiI2mayzcp2AstbCk%2b0ggUbCDhDxM%2bR/HYuE2iCUWhRIgPYdRzCvNp6/3mAR76bfqzcL//8EsIuQkRGQhVOganmc4/OKeJESoTyBSHgKBZEWxZ0WXnnRzCtICQ1IDzrmlb1wfm883wACFh00C9%2bk34McORchOK%2bmwdKYxGGLxrgvLot1dIGAmzQdKCpoXbAIHVVWseNZoCqMTuCf1YgQpEsh%2b11hQjTcHke8voAKvdwTWvOw8cLJKYZl4%2b2GxWMl49IY1zDUhNFLx7m20nRYhpqwnGHFBDcpj3WTJ3BD3GQTyZMJInmac5D1Vv7Dlyzi5F1mYVT7JM5QY7UHr9b3p3dbU1vPo43lsNxnzSMXqmCyCYjqjoCJGWMM6XyBqMz82eo7C2z3qc8XjXN7EBWNQD1wuDRGalgU4z6yGP1qM//6WivXsNbKH15j5RuBp7X1/R45KiN3tn5dk5faFHRe1XmDaxq1TepzEjQibhklMOoW73ztPzbKUr476Ja2MGf/fb3gZmgE9UcKLAE2AasZNmGhBWzxu6gM3ePo5wDfYMbGgIhy6Mvlmb6RjxpiVOOzsv3f8%2bYEtqAvUNhasjd3TFaOfyPwAFsvF9gMrAEqgI3AI6GI8wXyMF6P/gfAPcF3gqSj7xcCjgF/nZU3h3hzZxPIn2DhF%2bA8j/5KTsFcAvlyjr%2bYYPwRNQpjR3b%2bXJI3ewHVlTHjhwIX/MUP0flv63Z2baBkIZ13nq23BbgGdNJvoP8bcBLPY4F3fYF56nrUHow/A9LYd0x9XgRpCtCcY7p24B0mR8OI81j0K/RTmAHTZ%2bUXUaOOAiL0X7DxRfZ8TjbIYobXM90Q4GP6HabPCttQuB/jvwOj2NyDvkAJnZPHxhbYcRX9X4Dh/ylN/icidLl9AU69x0LfKdOdQIiy/ItmBuzAOx3oUccC19G3ZwdJoOF6iumuAW%2bz%2bflqBMFx4BxwXFdj9mP%2bp8BgrD0EfReeH9LXH4yLcwvn0/czmD6qPyJA013AQk1s4WlyoUrAQrbwt5j%2bx5CpvggGUyJWA61UZjtcAZzB%2bASbf5zNn4vvN2YhxSBzLAIOQaaEDcWzb7Nnu9l6w9j7yEqVAFkjoE9PA3rGaoUFcruHpQANOeCG6owvMFinu0J3HUhiDs%2bD8XPyix6k8iVgBL5zEaiHbAborn7JdvcfOQVqHXlKR8A1XXi3AF/QWqDbqGOsLsX0eR3QqiolgbF7CWjTkVPs85fQgvRn4CUs/gkL9zTAqoamHFjGDP0IWMneo7t6GKielafO56EbnunzD6KpAXR6fH4j1qpVo0gOjGDOTQUUlTBf4GXgQ5aGK4CxuhOojyMgdCGCk3JgJyPGyBajztbBuTb0%2bwCtICYA7wEFjIDB2pkN3QHgOeANYFePs34G8HsaQd6gY29pjrHnNuCnXppWvkAD4GH6dOCuPidAf93tKaOP7p00f88oUsmaKeeFZO3ioiMFN8pwBYc8pLfLzi0uZMbe7OybFICR6XJ%2bSGa3LW33JwGLgUz2fBDTO2hY6i8odHdowdJuiprR9EjT8lbXZ2CHN2hRw3QjgHIaIdopQOFRr8UBQ6YvXKuycgr7rQiqDOsigIKe1ena3YDpV9HihPmxuiN0OLvgjNFHD/SPY14Kk6PYsweBPdocb1i/ARB0N0JmH7NLDv846vemi4LRHnZR0nYRBsSoV2Q5dIHRnk2BsRO77baMWoE7hT6UMeduyKn0/O9Wb%2bTASCC6334B/jcnQ291oTfmQyeI7o7u1cjT5bxWD7w9fnyF9Lr3tW9m%2bPy3iQC5WxoYuxEhq0QYe6aKtuvecOSE32dEhJ1VdSZtjq5YGvX/AQy0gTbQBtrXbf8CL5Nhufa/mFIAAAAASUVORK5CYII=' /%3e%3c/svg%3e"}}}]}},"context":{}}